{
    "fluentMethods": true,
    "clientRootFolder": "",
    "relationships": [],
    "fields": [
        {
            "fieldName": "victories",
            "fieldType": "Integer"
        }
    ],
    "changelogDate": "20190509070624",
    "dto": "no",
    "searchEngine": false,
    "service": "no",
    "entityTableName": "user",
    "databaseType": "sql",
    "jpaMetamodelFiltering": false,
    "pagination": "no"
}
